EESchema Schematic File Version 4
EELAYER 30 0
EELAYER END
$Descr A4 11693 8268
encoding utf-8
Sheet 1 1
Title "Power Supply 3V3 / 5V0"
Date "2021-09-28"
Rev "0"
Comp "Florian Schuetz"
Comment1 ""
Comment2 ""
Comment3 ""
Comment4 ""
$EndDescr
$Comp
L power:GND #PWR0112
U 1 1 6143B99E
P 1450 5550
F 0 "#PWR0112" H 1450 5300 50  0001 C CNN
F 1 "GND" H 1455 5377 50  0000 C CNN
F 2 "" H 1450 5550 50  0001 C CNN
F 3 "" H 1450 5550 50  0001 C CNN
	1    1450 5550
	1    0    0    -1  
$EndComp
NoConn ~ 1150 5450
NoConn ~ 2050 5150
NoConn ~ 2050 5050
Wire Wire Line
	2050 3950 2150 3950
$Comp
L power:GND #PWR0114
U 1 1 613A5505
P 3150 2300
F 0 "#PWR0114" H 3150 2050 50  0001 C CNN
F 1 "GND" H 3155 2127 50  0000 C CNN
F 2 "" H 3150 2300 50  0001 C CNN
F 3 "" H 3150 2300 50  0001 C CNN
	1    3150 2300
	1    0    0    -1  
$EndComp
$Comp
L Device:D_Schottky D1
U 1 1 613AFB93
P 3600 1450
F 0 "D1" V 3646 1370 50  0000 R CNN
F 1 "B5819W" V 3555 1370 50  0000 R CNN
F 2 "Diode_SMD:D_SOD-123" H 3600 1450 50  0001 C CNN
F 3 "https://datasheet.lcsc.com/lcsc/1809292031_Tak-Cheong-B5819W_C248734.pdf" H 3600 1450 50  0001 C CNN
F 4 "C248734" V 3600 1450 50  0001 C CNN "#LCSC"
	1    3600 1450
	0    -1   -1   0   
$EndComp
Wire Wire Line
	3350 1600 3600 1600
Text Notes 2500 1900 0    50   ~ 0
Reverse polarity \nprotection
$Comp
L Regulator_Switching:TPS63000 U2
U 1 1 613B7F13
P 6600 1950
F 0 "U2" H 6600 2617 50  0000 C CNN
F 1 "TPS63000" H 6600 2526 50  0000 C CNN
F 2 "Package_SON:Texas_DRC0010J_scf_pad11_connect" H 7450 1400 50  0001 C CNN
F 3 "http://www.ti.com/lit/ds/symlink/tps63000.pdf" H 6300 2500 50  0001 C CNN
	1    6600 1950
	1    0    0    -1  
$EndComp
Text Label 4350 1600 0    50   ~ 0
V_MUX+
Wire Wire Line
	6200 1750 5800 1750
Text Label 5050 1750 0    50   ~ 0
V_MUX+
$Comp
L Device:C C1
U 1 1 613BC331
P 5400 2050
F 0 "C1" H 5515 2096 50  0000 L CNN
F 1 "10uF" H 5515 2005 50  0000 L CNN
F 2 "Capacitor_SMD:C_0805_2012Metric_Pad1.18x1.45mm_HandSolder" H 5438 1900 50  0001 C CNN
F 3 "~" H 5400 2050 50  0001 C CNN
	1    5400 2050
	1    0    0    -1  
$EndComp
$Comp
L Device:R R3
U 1 1 613BC902
P 5800 1950
F 0 "R3" H 5870 1996 50  0000 L CNN
F 1 "100" H 5870 1905 50  0000 L CNN
F 2 "Resistor_SMD:R_1206_3216Metric_Pad1.30x1.75mm_HandSolder" V 5730 1950 50  0001 C CNN
F 3 "~" H 5800 1950 50  0001 C CNN
	1    5800 1950
	1    0    0    -1  
$EndComp
Wire Wire Line
	5400 1900 5400 1750
Connection ~ 5400 1750
Wire Wire Line
	5400 1750 5050 1750
Wire Wire Line
	5800 1800 5800 1750
Connection ~ 5800 1750
Wire Wire Line
	5800 1750 5400 1750
Wire Wire Line
	6200 2150 6100 2150
Wire Wire Line
	6100 2150 6100 1950
Wire Wire Line
	6100 1850 6200 1850
Wire Wire Line
	6200 1950 6100 1950
Connection ~ 6100 1950
Wire Wire Line
	6100 1950 6100 1850
$Comp
L Device:C C2
U 1 1 613BFCE5
P 5800 2400
F 0 "C2" H 5915 2446 50  0000 L CNN
F 1 "100nF" H 5915 2355 50  0000 L CNN
F 2 "Capacitor_SMD:C_0805_2012Metric_Pad1.18x1.45mm_HandSolder" H 5838 2250 50  0001 C CNN
F 3 "~" H 5800 2400 50  0001 C CNN
	1    5800 2400
	1    0    0    -1  
$EndComp
Wire Wire Line
	5800 2100 5800 2150
$Comp
L Device:R R5
U 1 1 613C25B0
P 7250 2450
F 0 "R5" H 7320 2496 50  0000 L CNN
F 1 "200k" H 7320 2405 50  0000 L CNN
F 2 "Resistor_SMD:R_0805_2012Metric_Pad1.20x1.40mm_HandSolder" V 7180 2450 50  0001 C CNN
F 3 "~" H 7250 2450 50  0001 C CNN
	1    7250 2450
	1    0    0    -1  
$EndComp
$Comp
L power:GND #PWR0105
U 1 1 613C2F24
P 7250 2750
F 0 "#PWR0105" H 7250 2500 50  0001 C CNN
F 1 "GND" H 7255 2577 50  0000 C CNN
F 2 "" H 7250 2750 50  0001 C CNN
F 3 "" H 7250 2750 50  0001 C CNN
	1    7250 2750
	1    0    0    -1  
$EndComp
Text Notes 8750 1950 2    50   ~ 0
(Datasheet. Calculation = 1.12M)
$Comp
L Device:L L1
U 1 1 613C49B8
P 6600 1050
F 0 "L1" V 6419 1050 50  0000 C CNN
F 1 "3u3" V 6510 1050 50  0000 C CNN
F 2 "Inductor_SMD:L_1008_2520Metric_Pad1.43x2.20mm_HandSolder" H 6600 1050 50  0001 C CNN
F 3 "https://datasheet.lcsc.com/lcsc/1811151159_Murata-Electronics-LQH3NPZ3R3MMEL_C237449.pdf" H 6600 1050 50  0001 C CNN
F 4 "C237449" V 6600 1050 50  0001 C CNN "#LCSC"
	1    6600 1050
	0    1    1    0   
$EndComp
Wire Wire Line
	6200 1550 6200 1050
Wire Wire Line
	6200 1050 6450 1050
Wire Wire Line
	6750 1050 7000 1050
Wire Wire Line
	7000 1050 7000 1550
$Comp
L Device:C C3
U 1 1 613C640C
P 7700 2300
F 0 "C3" H 7815 2346 50  0000 L CNN
F 1 "15uF" H 7815 2255 50  0000 L CNN
F 2 "Capacitor_SMD:C_1210_3225Metric" H 7738 2150 50  0001 C CNN
F 3 "~" H 7700 2300 50  0001 C CNN
	1    7700 2300
	1    0    0    -1  
$EndComp
Wire Wire Line
	7700 2150 7700 1750
Wire Wire Line
	6600 2550 6600 3050
Text Label 6600 2850 3    50   ~ 0
PGND
Text Label 7700 2650 1    50   ~ 0
PGND
Wire Wire Line
	7700 2450 7700 2650
Wire Wire Line
	5400 2200 5400 2500
Text Label 5400 2500 1    50   ~ 0
PGND
$Comp
L power:GND #PWR0106
U 1 1 613CA852
P 5800 2900
F 0 "#PWR0106" H 5800 2650 50  0001 C CNN
F 1 "GND" H 5805 2727 50  0000 C CNN
F 2 "" H 5800 2900 50  0001 C CNN
F 3 "" H 5800 2900 50  0001 C CNN
	1    5800 2900
	1    0    0    -1  
$EndComp
Wire Wire Line
	5800 2900 5800 2550
Wire Wire Line
	6500 2700 6200 2700
Wire Wire Line
	6200 2700 6200 2800
Wire Wire Line
	6200 2800 6350 2800
Wire Wire Line
	6200 2800 6050 2800
Wire Wire Line
	6050 2800 6050 2900
Connection ~ 6200 2800
$Comp
L power:GND #PWR0107
U 1 1 613D1EDD
P 6050 2900
F 0 "#PWR0107" H 6050 2650 50  0001 C CNN
F 1 "GND" H 6055 2727 50  0000 C CNN
F 2 "" H 6050 2900 50  0001 C CNN
F 3 "" H 6050 2900 50  0001 C CNN
	1    6050 2900
	1    0    0    -1  
$EndComp
Text Label 6350 3050 1    50   ~ 0
PGND
Wire Wire Line
	6350 2800 6350 3050
Wire Wire Line
	7250 2300 7250 2200
Wire Wire Line
	7000 1950 7000 2200
$Comp
L Device:R R4
U 1 1 613C1399
P 7250 2000
F 0 "R4" H 7320 2046 50  0000 L CNN
F 1 "1M" H 7320 1955 50  0000 L CNN
F 2 "Resistor_SMD:R_0805_2012Metric_Pad1.20x1.40mm_HandSolder" V 7180 2000 50  0001 C CNN
F 3 "~" H 7250 2000 50  0001 C CNN
	1    7250 2000
	1    0    0    -1  
$EndComp
Wire Wire Line
	7000 2200 7250 2200
Wire Wire Line
	7000 1750 7250 1750
Connection ~ 7700 1750
Wire Wire Line
	7250 1850 7250 1750
Connection ~ 7250 1750
Wire Wire Line
	7250 1750 7400 1750
Wire Wire Line
	7250 2150 7250 2200
Connection ~ 7250 2200
Wire Wire Line
	7250 2600 7250 2750
Wire Wire Line
	6100 2150 5800 2150
Connection ~ 6100 2150
Connection ~ 5800 2150
Wire Wire Line
	5800 2150 5800 2250
Wire Wire Line
	4300 1600 4650 1600
Connection ~ 3600 1600
$Comp
L power:+3V3 #PWR0111
U 1 1 614157CB
P 7400 1000
F 0 "#PWR0111" H 7400 850 50  0001 C CNN
F 1 "+3V3" H 7415 1173 50  0000 C CNN
F 2 "" H 7400 1000 50  0001 C CNN
F 3 "" H 7400 1000 50  0001 C CNN
	1    7400 1000
	1    0    0    -1  
$EndComp
Wire Wire Line
	7400 1000 7400 1750
Connection ~ 7400 1750
Wire Wire Line
	7400 1750 7700 1750
$Comp
L Device:R R2
U 1 1 6145DBE0
P 3350 3750
F 0 "R2" H 3280 3704 50  0000 R CNN
F 1 "5k1(10%)" H 3280 3795 50  0000 R CNN
F 2 "Resistor_SMD:R_1206_3216Metric_Pad1.30x1.75mm_HandSolder" V 3280 3750 50  0001 C CNN
F 3 "~" H 3350 3750 50  0001 C CNN
	1    3350 3750
	-1   0    0    1   
$EndComp
$Comp
L Device:R R6
U 1 1 6145DBE6
P 3900 3750
F 0 "R6" H 3970 3796 50  0000 L CNN
F 1 "5k1(10%)" H 3970 3705 50  0000 L CNN
F 2 "Resistor_SMD:R_1206_3216Metric_Pad1.30x1.75mm_HandSolder" V 3830 3750 50  0001 C CNN
F 3 "~" H 3900 3750 50  0001 C CNN
	1    3900 3750
	1    0    0    -1  
$EndComp
$Comp
L power:GND #PWR0119
U 1 1 6145DBEE
P 3350 3950
F 0 "#PWR0119" H 3350 3700 50  0001 C CNN
F 1 "GND" H 3355 3777 50  0000 C CNN
F 2 "" H 3350 3950 50  0001 C CNN
F 3 "" H 3350 3950 50  0001 C CNN
	1    3350 3950
	1    0    0    -1  
$EndComp
$Comp
L power:GND #PWR0120
U 1 1 6145DBF4
P 3900 3950
F 0 "#PWR0120" H 3900 3700 50  0001 C CNN
F 1 "GND" H 3905 3777 50  0000 C CNN
F 2 "" H 3900 3950 50  0001 C CNN
F 3 "" H 3900 3950 50  0001 C CNN
	1    3900 3950
	1    0    0    -1  
$EndComp
Wire Wire Line
	3350 3900 3350 3950
Wire Wire Line
	3900 3900 3900 3950
Wire Notes Line
	3100 3000 4400 3000
Wire Notes Line
	4400 3000 4400 4250
Wire Notes Line
	4400 4250 3100 4250
Wire Notes Line
	3100 4250 3100 3000
Text Notes 3800 3100 0    50   ~ 0
Power Delivery
Wire Notes Line
	2300 650  4750 650 
Wire Notes Line
	4750 2550 2300 2550
Text Notes 6000 2700 0    39   ~ 0
Connect PG and \nCG close to IC
Wire Wire Line
	6500 2550 6500 2700
$Comp
L power:PWR_FLAG #FLG0101
U 1 1 614BCAFF
P 2150 3800
F 0 "#FLG0101" H 2150 3875 50  0001 C CNN
F 1 "PWR_FLAG" V 2150 3927 50  0000 L CNN
F 2 "" H 2150 3800 50  0001 C CNN
F 3 "~" H 2150 3800 50  0001 C CNN
	1    2150 3800
	0    1    1    0   
$EndComp
Wire Notes Line
	4750 650  4750 2550
Wire Notes Line
	2300 650  2300 2550
Wire Wire Line
	2950 1600 2400 1600
Text Label 2400 1600 0    50   ~ 0
BATT_SRC+
$Comp
L Device:Battery_Cell BT1
U 1 1 613A3504
P 1450 1850
F 0 "BT1" H 1568 1946 50  0000 L CNN
F 1 "18650 LiFePo" H 1568 1855 50  0000 L CNN
F 2 "Battery:BatteryHolder_SMD_SMT_1x18650" V 1450 1910 50  0001 C CNN
F 3 "~" V 1450 1910 50  0001 C CNN
	1    1450 1850
	1    0    0    -1  
$EndComp
Wire Wire Line
	1450 1650 1450 1400
$Comp
L power:GND #PWR0121
U 1 1 61466278
P 1450 2050
F 0 "#PWR0121" H 1450 1800 50  0001 C CNN
F 1 "GND" H 1455 1877 50  0000 C CNN
F 2 "" H 1450 2050 50  0001 C CNN
F 3 "" H 1450 2050 50  0001 C CNN
	1    1450 2050
	1    0    0    -1  
$EndComp
Wire Wire Line
	1450 1950 1450 2000
$Comp
L power:PWR_FLAG #FLG0102
U 1 1 6146B036
P 1450 1400
F 0 "#FLG0102" H 1450 1475 50  0001 C CNN
F 1 "PWR_FLAG" V 1450 1527 50  0000 L CNN
F 2 "" H 1450 1400 50  0001 C CNN
F 3 "~" H 1450 1400 50  0001 C CNN
	1    1450 1400
	0    -1   -1   0   
$EndComp
Connection ~ 1450 1400
$Comp
L power:PWR_FLAG #FLG0103
U 1 1 6146B56E
P 1450 2000
F 0 "#FLG0103" H 1450 2075 50  0001 C CNN
F 1 "PWR_FLAG" V 1450 2127 50  0000 L CNN
F 2 "" H 1450 2000 50  0001 C CNN
F 3 "~" H 1450 2000 50  0001 C CNN
	1    1450 2000
	0    -1   -1   0   
$EndComp
Connection ~ 1450 2000
Wire Wire Line
	1450 2000 1450 2050
Text Label 1450 1250 1    50   ~ 0
BATT_SRC+
Wire Wire Line
	1450 850  1450 1400
Wire Notes Line
	2150 650  2150 2550
Wire Notes Line
	2150 2550 850  2550
Wire Notes Line
	850  2550 850  650 
Wire Notes Line
	850  650  2150 650 
Wire Wire Line
	3600 1600 4000 1600
$Comp
L Device:Ferrite_Bead FB1
U 1 1 613AC049
P 4150 1600
F 0 "FB1" V 4350 1600 50  0000 C CNN
F 1 "600 @ 100 MHz" V 4450 1600 50  0000 C CNN
F 2 "Inductor_SMD:L_0805_2012Metric" V 4080 1600 50  0001 C CNN
F 3 "https://datasheet.lcsc.com/lcsc/1811061717_FH-Guangdong-Fenghua-Advanced-Tech-CBM201209U601T_C139168.pdf" H 4150 1600 50  0001 C CNN
F 4 "C139168" H 4150 1600 50  0001 C CNN "#LCSC"
	1    4150 1600
	0    1    1    0   
$EndComp
Wire Notes Line
	8900 650  4950 650 
Wire Notes Line
	4950 650  4950 3300
Wire Notes Line
	4950 3300 8900 3300
Wire Notes Line
	8900 3300 8900 650 
Text Notes 7800 750  0    50   ~ 0
3.3V buck-boost conversion
Text Notes 4250 750  0    50   ~ 0
power mux
Text Notes 1300 750  0    50   ~ 0
battery power source
$Comp
L Symbols:TPS61032PWPR U1
U 1 1 6150C0A0
P 7550 4800
F 0 "U1" H 7550 5555 50  0000 C CNN
F 1 "TPS61032PWPR" H 7550 5464 50  0000 C CNN
F 2 "Package_SO:HTSSOP-16-1EP_4.4x5mm_P0.65mm_EP3.4x5mm_Mask2.46x2.31mm" H 7700 4650 50  0001 C CNN
F 3 "https://datasheet.lcsc.com/lcsc/1809131521_Texas-Instruments-TPS61032PWPR_C88716.pdf" H 7700 4650 50  0001 C CNN
F 4 "C88716" H 7550 5373 50  0000 C CNN "#LCSC"
	1    7550 4800
	1    0    0    -1  
$EndComp
NoConn ~ 7950 4700
Wire Wire Line
	7150 4600 6950 4600
Wire Wire Line
	7150 4400 6900 4400
$Comp
L Device:L L2
U 1 1 6151453A
P 6750 4400
F 0 "L2" V 6569 4400 50  0000 C CNN
F 1 "2u7@2.6mOhm" V 6660 4400 50  0000 C CNN
F 2 "Inductor_SMD:L_1206_3216Metric_Pad1.22x1.90mm_HandSolder" H 6750 4400 50  0001 C CNN
F 3 "~" H 6750 4400 50  0001 C CNN
	1    6750 4400
	0    1    1    0   
$EndComp
Wire Wire Line
	7950 4400 8200 4400
Wire Wire Line
	7950 5000 9650 5000
$Comp
L Device:C C7
U 1 1 615178B3
P 8200 4700
F 0 "C7" H 8315 4746 50  0000 L CNN
F 1 "1u@1mOhm" H 8315 4655 50  0000 L CNN
F 2 "Capacitor_SMD:C_0805_2012Metric_Pad1.18x1.45mm_HandSolder" H 8238 4550 50  0001 C CNN
F 3 "~" H 8200 4700 50  0001 C CNN
	1    8200 4700
	1    0    0    -1  
$EndComp
$Comp
L Device:C C8
U 1 1 61519E4D
P 8850 4700
F 0 "C8" H 8965 4746 50  0000 L CNN
F 1 "330u@40mOhm" H 8965 4655 50  0000 L CNN
F 2 "Capacitor_Tantalum_SMD:CP_EIA-7343-15_Kemet-W_Pad2.25x2.55mm_HandSolder" H 8888 4550 50  0001 C CNN
F 3 "https://datasheet.lcsc.com/lcsc/1806090437_PANASONIC-6TPB330M_C179787.pdf" H 8850 4700 50  0001 C CNN
F 4 "C179787" H 8850 4700 50  0001 C CNN "#LCSC"
	1    8850 4700
	1    0    0    -1  
$EndComp
Text Notes 8850 4900 0    39   ~ 0
Low ESR\nTantalum
$Comp
L Device:R R9
U 1 1 6151A325
P 9650 4700
F 0 "R9" H 9720 4746 50  0000 L CNN
F 1 "1M54" H 9720 4655 50  0000 L CNN
F 2 "Resistor_SMD:R_1206_3216Metric_Pad1.30x1.75mm_HandSolder" V 9580 4700 50  0001 C CNN
F 3 "~" H 9650 4700 50  0001 C CNN
	1    9650 4700
	1    0    0    -1  
$EndComp
Wire Wire Line
	9650 4550 9650 4400
Connection ~ 9650 4400
Wire Wire Line
	9650 4850 9650 5000
Connection ~ 9650 5000
Wire Wire Line
	7950 5150 8200 5150
Wire Wire Line
	8850 5150 8850 4850
Wire Wire Line
	8200 4850 8200 5150
Connection ~ 8200 5150
Wire Wire Line
	8200 5150 8850 5150
Wire Wire Line
	8200 4550 8200 4400
Connection ~ 8200 4400
Wire Wire Line
	8200 4400 8850 4400
Wire Wire Line
	8850 4550 8850 4400
Connection ~ 8850 4400
Wire Wire Line
	8850 4400 9650 4400
Wire Wire Line
	8850 5150 9050 5150
Connection ~ 8850 5150
Text Label 9050 5200 3    39   ~ 0
PGND2
Wire Wire Line
	9050 5150 9050 5400
Wire Wire Line
	7150 5150 7100 5150
Wire Wire Line
	6900 5150 6900 5400
Wire Wire Line
	6900 5400 7050 5400
Wire Wire Line
	7050 5400 7050 5650
Wire Wire Line
	6900 5400 6750 5400
Wire Wire Line
	6750 5400 6750 5550
Connection ~ 6900 5400
Text Label 7050 5650 1    39   ~ 0
PGND2
$Comp
L power:GND #PWR0101
U 1 1 6152E97F
P 6750 5550
F 0 "#PWR0101" H 6750 5300 50  0001 C CNN
F 1 "GND" H 6755 5377 50  0000 C CNN
F 2 "" H 6750 5550 50  0001 C CNN
F 3 "" H 6750 5550 50  0001 C CNN
	1    6750 5550
	1    0    0    -1  
$EndComp
Text Notes 7100 5600 0    39   ~ 0
Connect PG and \nCG close to IC \nGND pin
Wire Wire Line
	7150 5000 7100 5000
Wire Wire Line
	7100 5000 7100 5150
Connection ~ 7100 5150
Wire Wire Line
	7100 5150 6900 5150
$Comp
L Device:R R7
U 1 1 61531417
P 6600 4750
F 0 "R7" H 6670 4796 50  0000 L CNN
F 1 "1M54" H 6670 4705 50  0000 L CNN
F 2 "Resistor_SMD:R_1206_3216Metric_Pad1.30x1.75mm_HandSolder" V 6530 4750 50  0001 C CNN
F 3 "~" H 6600 4750 50  0001 C CNN
	1    6600 4750
	1    0    0    -1  
$EndComp
$Comp
L Device:R R8
U 1 1 61531ADE
P 6600 5150
F 0 "R8" H 6670 5196 50  0000 L CNN
F 1 "390k" H 6670 5105 50  0000 L CNN
F 2 "Resistor_SMD:R_1206_3216Metric_Pad1.30x1.75mm_HandSolder" V 6530 5150 50  0001 C CNN
F 3 "~" H 6600 5150 50  0001 C CNN
	1    6600 5150
	1    0    0    -1  
$EndComp
Wire Wire Line
	6600 5000 7000 5000
Connection ~ 6600 5000
Wire Wire Line
	6600 5000 6600 4900
Text Label 6600 5500 1    39   ~ 0
PGND2
Wire Wire Line
	6600 5300 6600 5500
$Comp
L Device:C C5
U 1 1 6153D7A6
P 5850 4750
F 0 "C5" H 5965 4796 50  0000 L CNN
F 1 "10u" H 5965 4705 50  0000 L CNN
F 2 "Capacitor_SMD:C_0805_2012Metric_Pad1.18x1.45mm_HandSolder" H 5888 4600 50  0001 C CNN
F 3 "~" H 5850 4750 50  0001 C CNN
	1    5850 4750
	1    0    0    -1  
$EndComp
Connection ~ 6600 4600
Wire Wire Line
	5850 4900 5850 5500
Text Label 5850 5500 1    39   ~ 0
PGND2
Text Label 5000 4600 0    39   ~ 0
V_MUX+
$Comp
L Device:R R1
U 1 1 6159B6F4
P 3150 2100
F 0 "R1" H 3220 2146 50  0000 L CNN
F 1 "10k" H 3220 2055 50  0000 L CNN
F 2 "Resistor_SMD:R_1206_3216Metric_Pad1.30x1.75mm_HandSolder" V 3080 2100 50  0001 C CNN
F 3 "~" H 3150 2100 50  0001 C CNN
	1    3150 2100
	1    0    0    -1  
$EndComp
Wire Wire Line
	3600 1300 3400 1300
Connection ~ 3600 1300
Wire Wire Line
	3150 1900 3150 1950
Wire Wire Line
	3150 2250 3150 2300
Wire Wire Line
	3400 1900 3150 1900
Wire Wire Line
	3400 1300 3400 1900
Wire Notes Line
	4950 3850 10250 3850
Wire Notes Line
	10250 3850 10250 5900
Wire Notes Line
	10250 5900 4950 5900
Wire Notes Line
	4950 5900 4950 3850
Text Notes 9600 3950 0    39   ~ 0
5V boost conversion
Wire Wire Line
	7150 4700 6950 4700
Wire Wire Line
	6950 4700 6950 4600
Connection ~ 6950 4600
Wire Wire Line
	6950 4600 6600 4600
$Comp
L Device:C C6
U 1 1 615D8460
P 6250 4750
F 0 "C6" H 6365 4796 50  0000 L CNN
F 1 "100u" H 6365 4705 50  0000 L CNN
F 2 "Capacitor_SMD:C_1206_3216Metric_Pad1.33x1.80mm_HandSolder" H 6288 4600 50  0001 C CNN
F 3 "~" H 6250 4750 50  0001 C CNN
	1    6250 4750
	1    0    0    -1  
$EndComp
Connection ~ 6250 4600
Wire Wire Line
	6250 4600 6600 4600
Wire Wire Line
	6250 4900 6250 5500
Text Label 6250 5500 1    39   ~ 0
PGND2
Wire Wire Line
	5850 4600 6250 4600
Text Notes 6650 5000 0    28   ~ 0
2.1M = 3.2V\n1.54M = 2.5 \n1.02M = 1.8V\n
Text Notes 9700 4950 0    28   ~ 0
2.1M = 3.2V\n1.54M = 2.5 \n1.02M = 1.8V\n
Wire Wire Line
	7150 4800 7000 4800
Wire Wire Line
	7000 4800 7000 5000
Text Notes 6050 4250 0    39   ~ 0
3uH@4.1mOhm = 2.5V-4.2V @ 1A\n2.7uH@2.6mOhm = 2.5V - 4.5V @1.5A\n2.7uH@2.6mOhm = 1.8V - 4.5V @ 1A\n4uH@8.2mOhm = 3.2V -4.5V @ 1A\n\n
Text Notes 8850 4600 0    39   ~ 0
@80mOhm = 3.2V - 4.5V
$Comp
L Device:C C4
U 1 1 61696138
P 5450 4750
F 0 "C4" H 5565 4796 50  0000 L CNN
F 1 "10u" H 5565 4705 50  0000 L CNN
F 2 "Capacitor_SMD:C_0805_2012Metric_Pad1.18x1.45mm_HandSolder" H 5488 4600 50  0001 C CNN
F 3 "~" H 5450 4750 50  0001 C CNN
	1    5450 4750
	1    0    0    -1  
$EndComp
Wire Wire Line
	5850 4600 5450 4600
Wire Wire Line
	5000 4600 5350 4600
Connection ~ 5450 4600
Wire Wire Line
	5450 4900 5450 5500
Text Label 5450 5500 1    39   ~ 0
PGND2
Connection ~ 5850 4600
Text Notes 5400 5750 0    39   ~ 0
1.8V - 4.5V = 3x10u C\n3.2V - 4.5V = 1x10u C\n2.5V - 4.5V = 2x10u C\n
Wire Wire Line
	5350 4400 5350 4600
Wire Wire Line
	5350 4400 6600 4400
Connection ~ 5350 4600
Wire Wire Line
	5350 4600 5450 4600
Text Label 2450 4150 0    50   ~ 0
PD_CC1
Wire Wire Line
	2050 4150 2750 4150
Text Label 3350 3500 1    50   ~ 0
PD_CC1
Text Label 3900 3500 1    50   ~ 0
PD_CC2
Wire Wire Line
	3350 3200 3350 3600
Wire Wire Line
	3900 3200 3900 3600
Text Label 2150 3650 1    50   ~ 0
USB_VBUS
Wire Wire Line
	2150 3250 2150 3800
Wire Notes Line
	850  3000 2950 3000
Wire Notes Line
	2950 3000 2950 7000
Wire Notes Line
	2950 7000 850  7000
Wire Notes Line
	850  7000 850  3000
Text Notes 2500 3100 0    50   ~ 0
USB Plug
Connection ~ 2150 3800
Wire Wire Line
	2150 3800 2150 3950
Text Label 3600 1100 1    50   ~ 0
USB_VBUS
Wire Wire Line
	3600 700  3600 1300
Text Label 7950 1750 0    50   ~ 0
3V3+
Wire Wire Line
	7700 1750 8150 1750
Text Label 9950 4400 0    50   ~ 0
5V0+
Wire Wire Line
	9650 4400 10150 4400
Text Label 10000 5000 0    50   ~ 0
LBO
Wire Wire Line
	9650 5000 10150 5000
Wire Wire Line
	10200 1750 9850 1750
Wire Wire Line
	10200 1950 9850 1950
Text Label 9850 1750 0    50   ~ 0
3V3+
Text Label 9850 1950 0    50   ~ 0
5V0+
Wire Notes Line
	9550 1500 10750 1500
Wire Notes Line
	10750 1500 10750 2450
Wire Notes Line
	10750 2450 9550 2450
Wire Notes Line
	9550 2450 9550 1500
Text Notes 10450 1600 0    50   ~ 0
Output
NoConn ~ 2050 4750
NoConn ~ 2050 4650
NoConn ~ 2050 4550
NoConn ~ 2050 4450
Wire Wire Line
	1450 5450 1450 5550
Wire Wire Line
	2050 4250 2750 4250
Text Label 2450 4250 0    50   ~ 0
PD_CC2
$Comp
L Connector:USB_C_Receptacle_USB2.0 J1
U 1 1 618CA622
P 1450 4550
F 0 "J1" H 1557 5417 50  0000 C CNN
F 1 "USB_C_Receptacle_USB2.0" H 1557 5326 50  0000 C CNN
F 2 "Connector_USB:USB_C_Receptacle_HRO_TYPE-C-31-M-12" H 1600 4550 50  0001 C CNN
F 3 "https://www.usb.org/sites/default/files/documents/usb_type-c.zip" H 1600 4550 50  0001 C CNN
	1    1450 4550
	1    0    0    -1  
$EndComp
Wire Wire Line
	10200 1850 9700 1850
Wire Wire Line
	9700 1850 9700 2050
$Comp
L power:GND #PWR0102
U 1 1 618F9908
P 9700 2200
F 0 "#PWR0102" H 9700 1950 50  0001 C CNN
F 1 "GND" H 9705 2027 50  0000 C CNN
F 2 "" H 9700 2200 50  0001 C CNN
F 3 "" H 9700 2200 50  0001 C CNN
	1    9700 2200
	1    0    0    -1  
$EndComp
$Comp
L Connector:Conn_01x05_Male J2
U 1 1 61925639
P 10400 1950
F 0 "J2" H 10550 2300 50  0000 R CNN
F 1 "Conn_01x05_Male" H 10800 1650 50  0000 R CNN
F 2 "Connector_PinHeader_2.54mm:PinHeader_1x05_P2.54mm_Vertical" H 10400 1950 50  0001 C CNN
F 3 "~" H 10400 1950 50  0001 C CNN
	1    10400 1950
	-1   0    0    -1  
$EndComp
Wire Wire Line
	10200 2150 9850 2150
Wire Wire Line
	10200 2050 9700 2050
Connection ~ 9700 2050
Wire Wire Line
	9700 2050 9700 2200
Text Label 9850 2150 0    50   ~ 0
LBO
Wire Wire Line
	7550 5350 7700 5350
Wire Wire Line
	7700 5350 7700 5550
$Comp
L power:GND #PWR0103
U 1 1 619BD71B
P 7700 5550
F 0 "#PWR0103" H 7700 5300 50  0001 C CNN
F 1 "GND" H 7705 5377 50  0000 C CNN
F 2 "" H 7700 5550 50  0001 C CNN
F 3 "" H 7700 5550 50  0001 C CNN
	1    7700 5550
	1    0    0    -1  
$EndComp
$Comp
L Symbols:G16P03S Q1
U 1 1 6157CF77
P 3150 1700
F 0 "Q1" V 3492 1700 50  0000 C CNN
F 1 "G16P03S" V 3401 1700 50  0000 C CNN
F 2 "Package_SO:SOP-8_3.9x4.9mm_P1.27mm" H 3350 1625 50  0001 L CIN
F 3 "https://datasheet.lcsc.com/lcsc/2009211934_GOFORD-G16P03S_C840046.pdf" H 3150 1700 50  0001 L CNN
	1    3150 1700
	0    -1   -1   0   
$EndComp
Connection ~ 3150 1900
$EndSCHEMATC
