M48
; DRILL file {KiCad (6.0.0-0)} date 2022 February 12, Saturday 18:57:31
; FORMAT={-:-/ absolute / metric / decimal}
; #@! TF.CreationDate,2022-02-12T18:57:31+01:00
; #@! TF.GenerationSoftware,Kicad,Pcbnew,(6.0.0-0)
; #@! TF.FileFunction,Plated,1,2,PTH
FMAT,2
METRIC
; #@! TA.AperFunction,Plated,PTH,ViaDrill
T1C0.400
; #@! TA.AperFunction,Plated,PTH,ComponentDrill
T2C0.600
; #@! TA.AperFunction,Plated,PTH,ComponentDrill
T3C1.000
%
G90
G05
T1
X101.905Y-101.498
X101.905Y-104.038
X101.905Y-106.578
X101.905Y-109.118
X101.905Y-111.658
X101.905Y-114.198
X101.905Y-116.738
X104.445Y-101.498
X104.445Y-104.038
X104.445Y-106.578
X104.445Y-109.118
X104.445Y-111.658
X104.445Y-114.198
X104.445Y-116.738
X104.445Y-119.278
X106.985Y-101.498
X106.985Y-104.038
X106.985Y-106.578
X106.985Y-109.118
X106.985Y-111.658
X106.985Y-114.198
X106.985Y-116.738
X106.985Y-119.278
X106.985Y-121.818
X112.039Y-115.087
X112.09Y-67.424
X112.09Y-72.424
X112.09Y-77.424
X112.09Y-82.424
X112.09Y-87.424
X115.824Y-100.33
X115.824Y-102.87
X115.824Y-105.41
X115.824Y-107.95
X115.824Y-110.49
X115.824Y-113.03
X117.09Y-67.424
X117.09Y-72.424
X117.09Y-77.424
X117.09Y-82.424
X117.09Y-87.424
X118.364Y-100.33
X118.364Y-102.87
X118.364Y-105.41
X118.364Y-107.95
X118.364Y-110.49
X118.364Y-113.03
X120.904Y-100.33
X120.904Y-102.87
X120.904Y-105.41
X120.904Y-107.95
X120.904Y-110.49
X120.904Y-113.03
X122.09Y-67.424
X122.09Y-72.424
X122.09Y-77.424
X122.09Y-82.424
X122.09Y-87.424
X123.444Y-110.49
X123.444Y-113.03
X125.984Y-113.03
X127.09Y-67.424
X127.09Y-72.424
X127.09Y-77.424
X127.09Y-82.424
X127.09Y-87.424
X128.524Y-113.03
X132.09Y-67.424
X132.09Y-72.424
X132.09Y-77.424
X132.09Y-82.424
X132.09Y-87.424
X132.55Y-119.215
X132.766Y-100.228
X133.998Y-119.215
X134.214Y-100.228
X135.445Y-119.215
X135.661Y-100.228
X136.893Y-119.215
X137.09Y-67.424
X137.09Y-72.424
X137.09Y-77.424
X137.09Y-82.424
X137.09Y-87.424
X137.109Y-100.228
X142.09Y-67.424
X142.09Y-72.424
X142.09Y-77.424
X142.09Y-82.424
X142.09Y-87.424
X144.183Y-118.021
X144.183Y-123.021
X147.09Y-67.424
X147.09Y-72.424
X147.09Y-77.424
X147.09Y-82.424
X147.09Y-87.424
X149.183Y-118.021
X149.183Y-123.021
X152.09Y-67.424
X152.09Y-72.424
X152.09Y-77.424
X152.09Y-82.424
X152.09Y-87.424
X154.183Y-118.021
X154.183Y-123.021
X157.09Y-67.424
X157.09Y-72.424
X157.09Y-77.424
X157.09Y-82.424
X157.09Y-87.424
X157.912Y-103.327
X159.233Y-103.327
X160.553Y-103.327
X161.874Y-103.327
X162.09Y-67.424
X162.09Y-72.424
X162.09Y-77.424
X162.09Y-82.424
X162.09Y-87.424
X163.195Y-103.327
X167.09Y-67.424
X167.09Y-72.424
X167.09Y-77.424
X167.09Y-82.424
X167.09Y-87.424
X169.875Y-96.215
X169.875Y-97.638
X171.679Y-96.215
X172.09Y-67.424
X172.09Y-72.424
X172.09Y-77.424
X172.09Y-82.424
X172.09Y-87.424
X173.482Y-96.215
X175.285Y-96.215
X177.089Y-96.215
X177.09Y-67.424
X177.09Y-72.424
X177.09Y-77.424
X177.09Y-82.424
X177.09Y-87.424
X178.892Y-96.215
X180.137Y-82.271
X180.289Y-77.876
X182.09Y-87.424
X185.293Y-77.927
X185.369Y-82.296
T3
X164.617Y-122.631
X167.157Y-122.631
X169.697Y-122.631
X172.237Y-122.631
X174.777Y-122.631
T2
X111.402Y-117.554G85X111.402Y-118.654
G05
X111.402Y-121.984G85X111.402Y-122.584
G05
X120.042Y-117.554G85X120.042Y-118.654
G05
X120.042Y-121.984G85X120.042Y-122.584
G05
T0
M30
