%TF.GenerationSoftware,KiCad,Pcbnew,(6.0.0-0)*%
%TF.CreationDate,2022-02-12T18:56:50+01:00*%
%TF.ProjectId,PSU_3V3_5V,5053555f-3356-4335-9f35-562e6b696361,rev?*%
%TF.SameCoordinates,Original*%
%TF.FileFunction,Copper,L2,Bot*%
%TF.FilePolarity,Positive*%
%FSLAX46Y46*%
G04 Gerber Fmt 4.6, Leading zero omitted, Abs format (unit mm)*
G04 Created by KiCad (PCBNEW (6.0.0-0)) date 2022-02-12 18:56:50*
%MOMM*%
%LPD*%
G01*
G04 APERTURE LIST*
%TA.AperFunction,ComponentPad*%
%ADD10R,1.700000X1.700000*%
%TD*%
%TA.AperFunction,ComponentPad*%
%ADD11O,1.700000X1.700000*%
%TD*%
%TA.AperFunction,ComponentPad*%
%ADD12O,1.000000X1.600000*%
%TD*%
%TA.AperFunction,ComponentPad*%
%ADD13O,1.000000X2.100000*%
%TD*%
%TA.AperFunction,ViaPad*%
%ADD14C,0.800000*%
%TD*%
%TA.AperFunction,Conductor*%
%ADD15C,0.250000*%
%TD*%
G04 APERTURE END LIST*
D10*
X164617400Y-122631200D03*
D11*
X167157400Y-122631200D03*
X169697400Y-122631200D03*
X172237400Y-122631200D03*
X174777400Y-122631200D03*
D12*
X120042400Y-122284200D03*
D13*
X111402400Y-118104200D03*
D12*
X111402400Y-122284200D03*
D13*
X120042400Y-118104200D03*
D14*
X128524000Y-113030000D03*
X125984000Y-113030000D03*
X123444000Y-113030000D03*
X123444000Y-110490000D03*
X120904000Y-113030000D03*
X118364000Y-113030000D03*
X115824000Y-113030000D03*
X120904000Y-110490000D03*
X118364000Y-110490000D03*
X115824000Y-110490000D03*
X120904000Y-107950000D03*
X118364000Y-107950000D03*
X115824000Y-107950000D03*
X120904000Y-105410000D03*
X118364000Y-105410000D03*
X115824000Y-105410000D03*
X120904000Y-102870000D03*
X118364000Y-102870000D03*
X115824000Y-102870000D03*
X120904000Y-100330000D03*
X118364000Y-100330000D03*
X106984800Y-121818400D03*
X106984800Y-119278400D03*
X104444800Y-119278400D03*
X106984800Y-116738400D03*
X104444800Y-116738400D03*
X101904800Y-116738400D03*
X106984800Y-114198400D03*
X104444800Y-114198400D03*
X101904800Y-114198400D03*
X106984800Y-111658400D03*
X104444800Y-111658400D03*
X101904800Y-111658400D03*
X106984800Y-109118400D03*
X104444800Y-109118400D03*
X101904800Y-109118400D03*
X106984800Y-106578400D03*
X104444800Y-106578400D03*
X101904800Y-106578400D03*
X106984800Y-104038400D03*
X104444800Y-104038400D03*
X101904800Y-104038400D03*
X106984800Y-101498400D03*
X104444800Y-101498400D03*
X101904800Y-101498400D03*
X169875200Y-97637600D03*
X169875200Y-96215200D03*
X171678600Y-96215200D03*
X177088800Y-96215200D03*
X157911800Y-103327200D03*
X132765800Y-100228400D03*
X134213600Y-100228400D03*
X135661400Y-100228400D03*
X132549900Y-119214900D03*
X136893300Y-119214900D03*
X133997700Y-119214900D03*
X135445500Y-119214900D03*
X117090200Y-67424300D03*
X122090200Y-67424300D03*
X127090200Y-67424300D03*
X132090200Y-67424300D03*
X137090200Y-67424300D03*
X142090200Y-67424300D03*
X147090200Y-67424300D03*
X152090200Y-67424300D03*
X157090200Y-67424300D03*
X162090200Y-67424300D03*
X167090200Y-67424300D03*
X172090200Y-67424300D03*
X177090200Y-67424300D03*
X112090200Y-72424300D03*
X117090200Y-72424300D03*
X122090200Y-72424300D03*
X127090200Y-72424300D03*
X132090200Y-72424300D03*
X137090200Y-72424300D03*
X142090200Y-72424300D03*
X147090200Y-72424300D03*
X152090200Y-72424300D03*
X157090200Y-72424300D03*
X162090200Y-72424300D03*
X167090200Y-72424300D03*
X172090200Y-72424300D03*
X177090200Y-72424300D03*
X112090200Y-77424300D03*
X117090200Y-77424300D03*
X122090200Y-77424300D03*
X127090200Y-77424300D03*
X132090200Y-77424300D03*
X137090200Y-77424300D03*
X142090200Y-77424300D03*
X147090200Y-77424300D03*
X152090200Y-77424300D03*
X157090200Y-77424300D03*
X162090200Y-77424300D03*
X167090200Y-77424300D03*
X172090200Y-77424300D03*
X177090200Y-77424300D03*
X112090200Y-82424300D03*
X117090200Y-82424300D03*
X122090200Y-82424300D03*
X127090200Y-82424300D03*
X132090200Y-82424300D03*
X137090200Y-82424300D03*
X142090200Y-82424300D03*
X147090200Y-82424300D03*
X152090200Y-82424300D03*
X157090200Y-82424300D03*
X162090200Y-82424300D03*
X167090200Y-82424300D03*
X172090200Y-82424300D03*
X177090200Y-82424300D03*
X112090200Y-87424300D03*
X117090200Y-87424300D03*
X122090200Y-87424300D03*
X127090200Y-87424300D03*
X132090200Y-87424300D03*
X137090200Y-87424300D03*
X142090200Y-87424300D03*
X147090200Y-87424300D03*
X152090200Y-87424300D03*
X157090200Y-87424300D03*
X162090200Y-87424300D03*
X167090200Y-87424300D03*
X172090200Y-87424300D03*
X177090200Y-87424300D03*
X182090200Y-87424300D03*
X149183100Y-118021100D03*
X154183100Y-118021100D03*
X144183100Y-123021100D03*
X149183100Y-123021100D03*
X154183100Y-123021100D03*
X180136800Y-82270600D03*
X112039400Y-115087400D03*
X185293000Y-77927200D03*
X180289200Y-77876400D03*
X178892200Y-96215200D03*
X163195000Y-103327200D03*
X160553400Y-103327200D03*
X185369200Y-82296000D03*
X144183100Y-118021100D03*
X175285400Y-96215200D03*
X112090200Y-67424300D03*
X137109200Y-100228400D03*
X173482000Y-96215200D03*
X159232600Y-103327200D03*
X161874200Y-103327200D03*
X115824000Y-100330000D03*
D15*
X120042400Y-118104200D02*
X120042400Y-122284200D01*
X111402400Y-122284200D02*
X111402400Y-118104200D01*
X111571921Y-117934679D02*
X111402400Y-118104200D01*
X119872879Y-117934679D02*
X111571921Y-117934679D01*
X120042400Y-118104200D02*
X119872879Y-117934679D01*
%TA.AperFunction,Conductor*%
G36*
X176888553Y-64848621D02*
G01*
X176901400Y-64851176D01*
X176913571Y-64848755D01*
X176919840Y-64848755D01*
X176937445Y-64847289D01*
X176985960Y-64848755D01*
X177534060Y-64865317D01*
X177541642Y-64865777D01*
X177854914Y-64894244D01*
X178168178Y-64922711D01*
X178175734Y-64923628D01*
X178797707Y-65018291D01*
X178805193Y-65019663D01*
X179420312Y-65151705D01*
X179427702Y-65153527D01*
X180033710Y-65322465D01*
X180040976Y-65324729D01*
X180635700Y-65529955D01*
X180642795Y-65532646D01*
X180933425Y-65653029D01*
X181224045Y-65773408D01*
X181230986Y-65776532D01*
X181796625Y-66051942D01*
X181803364Y-66055479D01*
X182351351Y-66364545D01*
X182357857Y-66368478D01*
X182886173Y-66710060D01*
X182892436Y-66714383D01*
X183399162Y-67087239D01*
X183405154Y-67091933D01*
X183888450Y-67494711D01*
X183894147Y-67499758D01*
X184111548Y-67704405D01*
X184352250Y-67930988D01*
X184357612Y-67936350D01*
X184584195Y-68177052D01*
X184788842Y-68394453D01*
X184793889Y-68400150D01*
X185033995Y-68688255D01*
X185115792Y-68786403D01*
X185196667Y-68883446D01*
X185201361Y-68889438D01*
X185574217Y-69396164D01*
X185578540Y-69402427D01*
X185920122Y-69930743D01*
X185924060Y-69937257D01*
X186233121Y-70485236D01*
X186236658Y-70491975D01*
X186512068Y-71057614D01*
X186515192Y-71064555D01*
X186739724Y-71606620D01*
X186755950Y-71645794D01*
X186758649Y-71652911D01*
X186911247Y-72095125D01*
X186918138Y-72135819D01*
X187064796Y-117545019D01*
X187060138Y-117579372D01*
X186967210Y-117911544D01*
X186964937Y-117918814D01*
X186769611Y-118482920D01*
X186760442Y-118509399D01*
X186757738Y-118516505D01*
X186534964Y-119052527D01*
X186517878Y-119093638D01*
X186514739Y-119100590D01*
X186240395Y-119662150D01*
X186236841Y-119668899D01*
X185929017Y-120212830D01*
X185925060Y-120219352D01*
X185584899Y-120743638D01*
X185580556Y-120749908D01*
X185209289Y-121252655D01*
X185204574Y-121258652D01*
X185121464Y-121358001D01*
X184807079Y-121733812D01*
X184803551Y-121738029D01*
X184798488Y-121743721D01*
X184498354Y-122061287D01*
X184369194Y-122197949D01*
X184363789Y-122203331D01*
X183907818Y-122630727D01*
X183902098Y-122635773D01*
X183421079Y-123034812D01*
X183415063Y-123039503D01*
X182910777Y-123408704D01*
X182904489Y-123413021D01*
X182894831Y-123419231D01*
X182397987Y-123738685D01*
X182378802Y-123751020D01*
X182372269Y-123754946D01*
X182045179Y-123938278D01*
X181827069Y-124060527D01*
X181820305Y-124064053D01*
X181257639Y-124336070D01*
X181250674Y-124339181D01*
X180672558Y-124576660D01*
X180665418Y-124579343D01*
X180074012Y-124781396D01*
X180066722Y-124783643D01*
X179464152Y-124949544D01*
X179456740Y-124951345D01*
X179196650Y-125006270D01*
X178845250Y-125080476D01*
X178837755Y-125081824D01*
X178219528Y-125173722D01*
X178211976Y-125174612D01*
X177589359Y-125228927D01*
X177581758Y-125229360D01*
X176989206Y-125245047D01*
X176971635Y-125243517D01*
X176965347Y-125243493D01*
X176953186Y-125241026D01*
X176941008Y-125243400D01*
X176941007Y-125243400D01*
X176939613Y-125243672D01*
X176915504Y-125246000D01*
X110854440Y-125246000D01*
X110832954Y-125244155D01*
X110827557Y-125243221D01*
X110815330Y-125241105D01*
X110803223Y-125243829D01*
X110797262Y-125243978D01*
X110779370Y-125245930D01*
X110246601Y-125243745D01*
X110192700Y-125243524D01*
X110185375Y-125243281D01*
X109876423Y-125224014D01*
X109567469Y-125204748D01*
X109560175Y-125204079D01*
X109319368Y-125174931D01*
X108945564Y-125129684D01*
X108938317Y-125128592D01*
X108329066Y-125018586D01*
X108321894Y-125017074D01*
X107720085Y-124871832D01*
X107713013Y-124869906D01*
X107120657Y-124689916D01*
X107113709Y-124687582D01*
X106532835Y-124473458D01*
X106526035Y-124470725D01*
X105958566Y-124223178D01*
X105951936Y-124220053D01*
X105644466Y-124064053D01*
X105399827Y-123939931D01*
X105393412Y-123936438D01*
X104858524Y-123624687D01*
X104852302Y-123620814D01*
X104336450Y-123278494D01*
X104330463Y-123274265D01*
X103835395Y-122902533D01*
X103829665Y-122897964D01*
X103510899Y-122628253D01*
X110647900Y-122628253D01*
X110663138Y-122758954D01*
X110665634Y-122765831D01*
X110665635Y-122765834D01*
X110679751Y-122804722D01*
X110723168Y-122924334D01*
X110819634Y-123071468D01*
X110947360Y-123192464D01*
X111099496Y-123280832D01*
X111267880Y-123331830D01*
X111443480Y-123342724D01*
X111450696Y-123341484D01*
X111450698Y-123341484D01*
X111609662Y-123314169D01*
X111609664Y-123314168D01*
X111616877Y-123312929D01*
X111778768Y-123244044D01*
X111920471Y-123139763D01*
X112034382Y-123005680D01*
X112056601Y-122962166D01*
X112111066Y-122855505D01*
X112111068Y-122855500D01*
X112114393Y-122848988D01*
X112123855Y-122810323D01*
X112153480Y-122689253D01*
X112156211Y-122678092D01*
X112156900Y-122666986D01*
X112156900Y-121940147D01*
X112141662Y-121809446D01*
X112122311Y-121756133D01*
X112084129Y-121650945D01*
X112081632Y-121644066D01*
X112058793Y-121609230D01*
X112018885Y-121548362D01*
X111985166Y-121496932D01*
X111857440Y-121375936D01*
X111844617Y-121368488D01*
X111795757Y-121316978D01*
X111781900Y-121259533D01*
X111781900Y-119375455D01*
X111801902Y-119307334D01*
X111833219Y-119273973D01*
X111914568Y-119214108D01*
X111914573Y-119214104D01*
X111920471Y-119209763D01*
X112034382Y-119075680D01*
X112106942Y-118933580D01*
X112155735Y-118882007D01*
X112224665Y-118865001D01*
X112291847Y-118887961D01*
X112325572Y-118924915D01*
X112326208Y-118926450D01*
X112331232Y-118932997D01*
X112331234Y-118933001D01*
X112378297Y-118994334D01*
X112419096Y-119047504D01*
X112540150Y-119140392D01*
X112681120Y-119198784D01*
X112794420Y-119213700D01*
X112870380Y-119213700D01*
X112983680Y-119198784D01*
X113124650Y-119140392D01*
X113245704Y-119047504D01*
X113338592Y-118926450D01*
X113396984Y-118785480D01*
X113416900Y-118634200D01*
X113396984Y-118482920D01*
X113393826Y-118475297D01*
X113393154Y-118472787D01*
X113394845Y-118401811D01*
X113434641Y-118343016D01*
X113499906Y-118315070D01*
X113514861Y-118314179D01*
X117929939Y-118314179D01*
X117998060Y-118334181D01*
X118044553Y-118387837D01*
X118054657Y-118458111D01*
X118051646Y-118472787D01*
X118050974Y-118475297D01*
X118047816Y-118482920D01*
X118027900Y-118634200D01*
X118047816Y-118785480D01*
X118106208Y-118926450D01*
X118199096Y-119047504D01*
X118320150Y-119140392D01*
X118461120Y-119198784D01*
X118574420Y-119213700D01*
X118650380Y-119213700D01*
X118763680Y-119198784D01*
X118904650Y-119140392D01*
X119025704Y-119047504D01*
X119118592Y-118926450D01*
X119119693Y-118923792D01*
X119169272Y-118876517D01*
X119238985Y-118863079D01*
X119304897Y-118889465D01*
X119345449Y-118945519D01*
X119363168Y-118994334D01*
X119459634Y-119141468D01*
X119587360Y-119262464D01*
X119600183Y-119269912D01*
X119649043Y-119321422D01*
X119662900Y-119378867D01*
X119662900Y-121262945D01*
X119642898Y-121331066D01*
X119611581Y-121364427D01*
X119530232Y-121424292D01*
X119530227Y-121424296D01*
X119524329Y-121428637D01*
X119410418Y-121562720D01*
X119407090Y-121569238D01*
X119333734Y-121712895D01*
X119333732Y-121712900D01*
X119330407Y-121719412D01*
X119328668Y-121726518D01*
X119328667Y-121726521D01*
X119310059Y-121802566D01*
X119288589Y-121890308D01*
X119287900Y-121901414D01*
X119287900Y-122628253D01*
X119303138Y-122758954D01*
X119305634Y-122765831D01*
X119305635Y-122765834D01*
X119319751Y-122804722D01*
X119363168Y-122924334D01*
X119459634Y-123071468D01*
X119587360Y-123192464D01*
X119739496Y-123280832D01*
X119907880Y-123331830D01*
X120083480Y-123342724D01*
X120090696Y-123341484D01*
X120090698Y-123341484D01*
X120249662Y-123314169D01*
X120249664Y-123314168D01*
X120256877Y-123312929D01*
X120418768Y-123244044D01*
X120560471Y-123139763D01*
X120674382Y-123005680D01*
X120696601Y-122962166D01*
X120751066Y-122855505D01*
X120751068Y-122855500D01*
X120754393Y-122848988D01*
X120763855Y-122810323D01*
X120793480Y-122689253D01*
X120796211Y-122678092D01*
X120796900Y-122666986D01*
X120796900Y-121940147D01*
X120781662Y-121809446D01*
X120762311Y-121756133D01*
X163512900Y-121756133D01*
X163512901Y-123506266D01*
X163527666Y-123580501D01*
X163534561Y-123590820D01*
X163534562Y-123590822D01*
X163574916Y-123651215D01*
X163583916Y-123664684D01*
X163668099Y-123720934D01*
X163742333Y-123735700D01*
X164617258Y-123735700D01*
X165492466Y-123735699D01*
X165528218Y-123728588D01*
X165554526Y-123723356D01*
X165554528Y-123723355D01*
X165566701Y-123720934D01*
X165577021Y-123714039D01*
X165577022Y-123714038D01*
X165640568Y-123671577D01*
X165650884Y-123664684D01*
X165707134Y-123580501D01*
X165721900Y-123506267D01*
X165721899Y-122602164D01*
X168588548Y-122602164D01*
X168601824Y-122804722D01*
X168603245Y-122810318D01*
X168603246Y-122810323D01*
X168626106Y-122900332D01*
X168651792Y-123001469D01*
X168654209Y-123006712D01*
X168715546Y-123139763D01*
X168736777Y-123185816D01*
X168740110Y-123190532D01*
X168846792Y-123341484D01*
X168853933Y-123351589D01*
X168999338Y-123493235D01*
X169168120Y-123606012D01*
X169173423Y-123608290D01*
X169173426Y-123608292D01*
X169304683Y-123664684D01*
X169354628Y-123686142D01*
X169427644Y-123702664D01*
X169546979Y-123729667D01*
X169546984Y-123729668D01*
X169552616Y-123730942D01*
X169558387Y-123731169D01*
X169558389Y-123731169D01*
X169618156Y-123733517D01*
X169755453Y-123738912D01*
X169862748Y-123723355D01*
X169950631Y-123710613D01*
X169950636Y-123710612D01*
X169956345Y-123709784D01*
X169961809Y-123707929D01*
X169961814Y-123707928D01*
X170143093Y-123646392D01*
X170143098Y-123646390D01*
X170148565Y-123644534D01*
X170184005Y-123624687D01*
X170223083Y-123602802D01*
X170325676Y-123545347D01*
X170365369Y-123512335D01*
X170477313Y-123419231D01*
X170481745Y-123415545D01*
X170550994Y-123332283D01*
X170607853Y-123263918D01*
X170607855Y-123263915D01*
X170611547Y-123259476D01*
X170671245Y-123152877D01*
X170707910Y-123087408D01*
X170707911Y-123087406D01*
X170710734Y-123082365D01*
X170712590Y-123076898D01*
X170712592Y-123076893D01*
X170774128Y-122895614D01*
X170774129Y-122895609D01*
X170775984Y-122890145D01*
X170776812Y-122884436D01*
X170776813Y-122884431D01*
X170804579Y-122692927D01*
X170805112Y-122689253D01*
X170806632Y-122631200D01*
X170803964Y-122602164D01*
X173668548Y-122602164D01*
X173681824Y-122804722D01*
X173683245Y-122810318D01*
X173683246Y-122810323D01*
X173706106Y-122900332D01*
X173731792Y-123001469D01*
X173734209Y-123006712D01*
X173795546Y-123139763D01*
X173816777Y-123185816D01*
X173820110Y-123190532D01*
X173926792Y-123341484D01*
X173933933Y-123351589D01*
X174079338Y-123493235D01*
X174248120Y-123606012D01*
X174253423Y-123608290D01*
X174253426Y-123608292D01*
X174384683Y-123664684D01*
X174434628Y-123686142D01*
X174507644Y-123702664D01*
X174626979Y-123729667D01*
X174626984Y-123729668D01*
X174632616Y-123730942D01*
X174638387Y-123731169D01*
X174638389Y-123731169D01*
X174698156Y-123733517D01*
X174835453Y-123738912D01*
X174942748Y-123723355D01*
X175030631Y-123710613D01*
X175030636Y-123710612D01*
X175036345Y-123709784D01*
X175041809Y-123707929D01*
X175041814Y-123707928D01*
X175223093Y-123646392D01*
X175223098Y-123646390D01*
X175228565Y-123644534D01*
X175264005Y-123624687D01*
X175303083Y-123602802D01*
X175405676Y-123545347D01*
X175445369Y-123512335D01*
X175557313Y-123419231D01*
X175561745Y-123415545D01*
X175630994Y-123332283D01*
X175687853Y-123263918D01*
X175687855Y-123263915D01*
X175691547Y-123259476D01*
X175751245Y-123152877D01*
X175787910Y-123087408D01*
X175787911Y-123087406D01*
X175790734Y-123082365D01*
X175792590Y-123076898D01*
X175792592Y-123076893D01*
X175854128Y-122895614D01*
X175854129Y-122895609D01*
X175855984Y-122890145D01*
X175856812Y-122884436D01*
X175856813Y-122884431D01*
X175884579Y-122692927D01*
X175885112Y-122689253D01*
X175886632Y-122631200D01*
X175868058Y-122429059D01*
X175866490Y-122423499D01*
X175814525Y-122239246D01*
X175814524Y-122239244D01*
X175812957Y-122233687D01*
X175802378Y-122212233D01*
X175725731Y-122056809D01*
X175723176Y-122051628D01*
X175601720Y-121888979D01*
X175452658Y-121751187D01*
X175447775Y-121748106D01*
X175447771Y-121748103D01*
X175285864Y-121645948D01*
X175280981Y-121642867D01*
X175092439Y-121567646D01*
X175086779Y-121566520D01*
X175086775Y-121566519D01*
X174899013Y-121529171D01*
X174899010Y-121529171D01*
X174893346Y-121528044D01*
X174887571Y-121527968D01*
X174887567Y-121527968D01*
X174786193Y-121526641D01*
X174690371Y-121525387D01*
X174684674Y-121526366D01*
X174684673Y-121526366D01*
X174496007Y-121558785D01*
X174490310Y-121559764D01*
X174299863Y-121630024D01*
X174125410Y-121733812D01*
X174121070Y-121737618D01*
X174121066Y-121737621D01*
X174047011Y-121802566D01*
X173972792Y-121867655D01*
X173847120Y-122027069D01*
X173844431Y-122032180D01*
X173844429Y-122032183D01*
X173831473Y-122056809D01*
X173752603Y-122206715D01*
X173692407Y-122400578D01*
X173668548Y-122602164D01*
X170803964Y-122602164D01*
X170788058Y-122429059D01*
X170786490Y-122423499D01*
X170734525Y-122239246D01*
X170734524Y-122239244D01*
X170732957Y-122233687D01*
X170722378Y-122212233D01*
X170645731Y-122056809D01*
X170643176Y-122051628D01*
X170521720Y-121888979D01*
X170372658Y-121751187D01*
X170367775Y-121748106D01*
X170367771Y-121748103D01*
X170205864Y-121645948D01*
X170200981Y-121642867D01*
X170012439Y-121567646D01*
X170006779Y-121566520D01*
X170006775Y-121566519D01*
X169819013Y-121529171D01*
X169819010Y-121529171D01*
X169813346Y-121528044D01*
X169807571Y-121527968D01*
X169807567Y-121527968D01*
X169706193Y-121526641D01*
X169610371Y-121525387D01*
X169604674Y-121526366D01*
X169604673Y-121526366D01*
X169416007Y-121558785D01*
X169410310Y-121559764D01*
X169219863Y-121630024D01*
X169045410Y-121733812D01*
X169041070Y-121737618D01*
X169041066Y-121737621D01*
X168967011Y-121802566D01*
X168892792Y-121867655D01*
X168767120Y-122027069D01*
X168764431Y-122032180D01*
X168764429Y-122032183D01*
X168751473Y-122056809D01*
X168672603Y-122206715D01*
X168612407Y-122400578D01*
X168588548Y-122602164D01*
X165721899Y-122602164D01*
X165721899Y-121756134D01*
X165707134Y-121681899D01*
X165681855Y-121644066D01*
X165659884Y-121611185D01*
X165650884Y-121597716D01*
X165566701Y-121541466D01*
X165492467Y-121526700D01*
X164617542Y-121526700D01*
X163742334Y-121526701D01*
X163706582Y-121533812D01*
X163680274Y-121539044D01*
X163680272Y-121539045D01*
X163668099Y-121541466D01*
X163657779Y-121548361D01*
X163657778Y-121548362D01*
X163597385Y-121588716D01*
X163583916Y-121597716D01*
X163527666Y-121681899D01*
X163512900Y-121756133D01*
X120762311Y-121756133D01*
X120724129Y-121650945D01*
X120721632Y-121644066D01*
X120698793Y-121609230D01*
X120658885Y-121548362D01*
X120625166Y-121496932D01*
X120497440Y-121375936D01*
X120484617Y-121368488D01*
X120435757Y-121316978D01*
X120421900Y-121259533D01*
X120421900Y-119375455D01*
X120441902Y-119307334D01*
X120473219Y-119273973D01*
X120554568Y-119214108D01*
X120554573Y-119214104D01*
X120560471Y-119209763D01*
X120674382Y-119075680D01*
X120696601Y-119032166D01*
X120751066Y-118925505D01*
X120751068Y-118925500D01*
X120754393Y-118918988D01*
X120761618Y-118889465D01*
X120794876Y-118753546D01*
X120796211Y-118748092D01*
X120796900Y-118736986D01*
X120796900Y-117510147D01*
X120781662Y-117379446D01*
X120721632Y-117214066D01*
X120625166Y-117066932D01*
X120497440Y-116945936D01*
X120345304Y-116857568D01*
X120176920Y-116806570D01*
X120001320Y-116795676D01*
X119994104Y-116796916D01*
X119994102Y-116796916D01*
X119835138Y-116824231D01*
X119835136Y-116824232D01*
X119827923Y-116825471D01*
X119666032Y-116894356D01*
X119524329Y-116998637D01*
X119410418Y-117132720D01*
X119407090Y-117139238D01*
X119333734Y-117282895D01*
X119333732Y-117282900D01*
X119330407Y-117289412D01*
X119328668Y-117296518D01*
X119328667Y-117296521D01*
X119288878Y-117459127D01*
X119253258Y-117520542D01*
X119190089Y-117552949D01*
X119166489Y-117555179D01*
X112274313Y-117555179D01*
X112206192Y-117535177D01*
X112159699Y-117481521D01*
X112149161Y-117443769D01*
X112142510Y-117386719D01*
X112142510Y-117386718D01*
X112141662Y-117379446D01*
X112081632Y-117214066D01*
X111985166Y-117066932D01*
X111857440Y-116945936D01*
X111705304Y-116857568D01*
X111536920Y-116806570D01*
X111361320Y-116795676D01*
X111354104Y-116796916D01*
X111354102Y-116796916D01*
X111195138Y-116824231D01*
X111195136Y-116824232D01*
X111187923Y-116825471D01*
X111026032Y-116894356D01*
X110884329Y-116998637D01*
X110770418Y-117132720D01*
X110767090Y-117139238D01*
X110693734Y-117282895D01*
X110693732Y-117282900D01*
X110690407Y-117289412D01*
X110688668Y-117296518D01*
X110688667Y-117296521D01*
X110674206Y-117355620D01*
X110648589Y-117460308D01*
X110647900Y-117471414D01*
X110647900Y-118698253D01*
X110663138Y-118828954D01*
X110665634Y-118835831D01*
X110665635Y-118835834D01*
X110682395Y-118882007D01*
X110723168Y-118994334D01*
X110819634Y-119141468D01*
X110947360Y-119262464D01*
X110960183Y-119269912D01*
X111009043Y-119321422D01*
X111022900Y-119378867D01*
X111022900Y-121262945D01*
X111002898Y-121331066D01*
X110971581Y-121364427D01*
X110890232Y-121424292D01*
X110890227Y-121424296D01*
X110884329Y-121428637D01*
X110770418Y-121562720D01*
X110767090Y-121569238D01*
X110693734Y-121712895D01*
X110693732Y-121712900D01*
X110690407Y-121719412D01*
X110688668Y-121726518D01*
X110688667Y-121726521D01*
X110670059Y-121802566D01*
X110648589Y-121890308D01*
X110647900Y-121901414D01*
X110647900Y-122628253D01*
X103510899Y-122628253D01*
X103357042Y-122498073D01*
X103351586Y-122493177D01*
X103284182Y-122429059D01*
X103084638Y-122239246D01*
X102903027Y-122066490D01*
X102897866Y-122061287D01*
X102474863Y-121609230D01*
X102470013Y-121603735D01*
X102386231Y-121503052D01*
X102073999Y-121127833D01*
X102069497Y-121122091D01*
X101857676Y-120835115D01*
X101701839Y-120623986D01*
X101697660Y-120617965D01*
X101359577Y-120099316D01*
X101355762Y-120093075D01*
X101048407Y-119555641D01*
X101044956Y-119549176D01*
X100904262Y-119266141D01*
X100769379Y-118994798D01*
X100766309Y-118988143D01*
X100523431Y-118418676D01*
X100520753Y-118411853D01*
X100311401Y-117829238D01*
X100309124Y-117822272D01*
X100133997Y-117228453D01*
X100132129Y-117221366D01*
X100067187Y-116942259D01*
X99991827Y-116618375D01*
X99990376Y-116611199D01*
X99906726Y-116125138D01*
X99904901Y-116103972D01*
X99869916Y-94483373D01*
X99837332Y-74346190D01*
X99837847Y-74334608D01*
X99857311Y-74120422D01*
X99858228Y-74112866D01*
X99952891Y-73490893D01*
X99954263Y-73483407D01*
X100086305Y-72868288D01*
X100088127Y-72860898D01*
X100257065Y-72254890D01*
X100259329Y-72247624D01*
X100464551Y-71652911D01*
X100467250Y-71645794D01*
X100483477Y-71606620D01*
X100708008Y-71064555D01*
X100711132Y-71057614D01*
X100986542Y-70491975D01*
X100990079Y-70485236D01*
X101299140Y-69937257D01*
X101303078Y-69930743D01*
X101644660Y-69402427D01*
X101648983Y-69396164D01*
X102021839Y-68889438D01*
X102026533Y-68883446D01*
X102107409Y-68786403D01*
X102189205Y-68688255D01*
X102429311Y-68400150D01*
X102434358Y-68394453D01*
X102639005Y-68177052D01*
X102865588Y-67936350D01*
X102870950Y-67930988D01*
X103111652Y-67704405D01*
X103329053Y-67499758D01*
X103334750Y-67494711D01*
X103818046Y-67091933D01*
X103824038Y-67087239D01*
X104330764Y-66714383D01*
X104337027Y-66710060D01*
X104865343Y-66368478D01*
X104871849Y-66364545D01*
X105419836Y-66055479D01*
X105426575Y-66051942D01*
X105992214Y-65776532D01*
X105999155Y-65773408D01*
X106289775Y-65653029D01*
X106580405Y-65532646D01*
X106587500Y-65529955D01*
X107182224Y-65324729D01*
X107189490Y-65322465D01*
X107795498Y-65153527D01*
X107802888Y-65151705D01*
X108418007Y-65019663D01*
X108425493Y-65018291D01*
X109047466Y-64923628D01*
X109055022Y-64922711D01*
X109368286Y-64894244D01*
X109681558Y-64865777D01*
X109689140Y-64865317D01*
X110237240Y-64848755D01*
X110285755Y-64847289D01*
X110303360Y-64848755D01*
X110309629Y-64848755D01*
X110321800Y-64851176D01*
X110334647Y-64848621D01*
X110359225Y-64846200D01*
X176863975Y-64846200D01*
X176888553Y-64848621D01*
G37*
%TD.AperFunction*%
M02*
