(kicad_symbol_lib (version 20211014) (generator kicad_symbol_editor)
  (symbol "G16P03S" (pin_names hide) (in_bom yes) (on_board yes)
    (property "Reference" "Q" (id 0) (at 5.08 1.905 0)
      (effects (font (size 1.27 1.27)) (justify left))
    )
    (property "Value" "G16P03S" (id 1) (at 5.08 0 0)
      (effects (font (size 1.27 1.27)) (justify left))
    )
    (property "Footprint" "Package_SO:SOP-8_3.9x4.9mm_P1.27mm" (id 2) (at 5.08 -1.905 0)
      (effects (font (size 1.27 1.27) italic) (justify left) hide)
    )
    (property "Datasheet" "" (id 3) (at 0 0 0)
      (effects (font (size 1.27 1.27)) (justify left) hide)
    )
    (property "ki_fp_filters" "SOT?23*" (id 4) (at 0 0 0)
      (effects (font (size 1.27 1.27)) hide)
    )
    (symbol "G16P03S_0_1"
      (polyline
        (pts
          (xy 0.254 0)
          (xy -2.54 0)
        )
        (stroke (width 0) (type default) (color 0 0 0 0))
        (fill (type none))
      )
      (polyline
        (pts
          (xy 0.254 1.905)
          (xy 0.254 -1.905)
        )
        (stroke (width 0.254) (type default) (color 0 0 0 0))
        (fill (type none))
      )
      (polyline
        (pts
          (xy 0.762 -1.27)
          (xy 0.762 -2.286)
        )
        (stroke (width 0.254) (type default) (color 0 0 0 0))
        (fill (type none))
      )
      (polyline
        (pts
          (xy 0.762 0.508)
          (xy 0.762 -0.508)
        )
        (stroke (width 0.254) (type default) (color 0 0 0 0))
        (fill (type none))
      )
      (polyline
        (pts
          (xy 0.762 2.286)
          (xy 0.762 1.27)
        )
        (stroke (width 0.254) (type default) (color 0 0 0 0))
        (fill (type none))
      )
      (polyline
        (pts
          (xy 2.54 2.54)
          (xy 2.54 1.778)
        )
        (stroke (width 0) (type default) (color 0 0 0 0))
        (fill (type none))
      )
      (polyline
        (pts
          (xy 2.54 -2.54)
          (xy 2.54 0)
          (xy 0.762 0)
        )
        (stroke (width 0) (type default) (color 0 0 0 0))
        (fill (type none))
      )
      (polyline
        (pts
          (xy 0.762 1.778)
          (xy 3.302 1.778)
          (xy 3.302 -1.778)
          (xy 0.762 -1.778)
        )
        (stroke (width 0) (type default) (color 0 0 0 0))
        (fill (type none))
      )
      (polyline
        (pts
          (xy 2.286 0)
          (xy 1.27 0.381)
          (xy 1.27 -0.381)
          (xy 2.286 0)
        )
        (stroke (width 0) (type default) (color 0 0 0 0))
        (fill (type outline))
      )
      (polyline
        (pts
          (xy 2.794 -0.508)
          (xy 2.921 -0.381)
          (xy 3.683 -0.381)
          (xy 3.81 -0.254)
        )
        (stroke (width 0) (type default) (color 0 0 0 0))
        (fill (type none))
      )
      (polyline
        (pts
          (xy 3.302 -0.381)
          (xy 2.921 0.254)
          (xy 3.683 0.254)
          (xy 3.302 -0.381)
        )
        (stroke (width 0) (type default) (color 0 0 0 0))
        (fill (type none))
      )
      (circle (center 1.651 0) (radius 2.794)
        (stroke (width 0.254) (type default) (color 0 0 0 0))
        (fill (type none))
      )
      (circle (center 2.54 -1.778) (radius 0.254)
        (stroke (width 0) (type default) (color 0 0 0 0))
        (fill (type outline))
      )
      (circle (center 2.54 1.778) (radius 0.254)
        (stroke (width 0) (type default) (color 0 0 0 0))
        (fill (type outline))
      )
    )
    (symbol "G16P03S_1_1"
      (pin passive line (at 2.54 -5.08 90) (length 2.54)
        (name "S" (effects (font (size 1.27 1.27))))
        (number "1" (effects (font (size 1.27 1.27))))
      )
      (pin passive line (at 2.54 -5.08 90) (length 2.54) hide
        (name "S" (effects (font (size 1.27 1.27))))
        (number "2" (effects (font (size 1.27 1.27))))
      )
      (pin passive line (at 2.54 -5.08 90) (length 2.54) hide
        (name "S" (effects (font (size 1.27 1.27))))
        (number "3" (effects (font (size 1.27 1.27))))
      )
      (pin input line (at -5.08 0 0) (length 2.54)
        (name "G" (effects (font (size 1.27 1.27))))
        (number "4" (effects (font (size 1.27 1.27))))
      )
      (pin passive line (at 2.54 5.08 270) (length 2.54)
        (name "D" (effects (font (size 1.27 1.27))))
        (number "5" (effects (font (size 1.27 1.27))))
      )
      (pin passive line (at 2.54 5.08 270) (length 2.54) hide
        (name "D" (effects (font (size 1.27 1.27))))
        (number "6" (effects (font (size 1.27 1.27))))
      )
      (pin passive line (at 2.54 5.08 270) (length 2.54) hide
        (name "D" (effects (font (size 1.27 1.27))))
        (number "7" (effects (font (size 1.27 1.27))))
      )
      (pin passive line (at 2.54 5.08 270) (length 2.54) hide
        (name "D" (effects (font (size 1.27 1.27))))
        (number "8" (effects (font (size 1.27 1.27))))
      )
    )
  )
  (symbol "AO3401A" (extends "G16P03S")
    (property "Reference" "Q" (id 0) (at 5.08 1.905 0)
      (effects (font (size 1.27 1.27)) (justify left))
    )
    (property "Value" "AO3401A" (id 1) (at 5.08 0 0)
      (effects (font (size 1.27 1.27)) (justify left))
    )
    (property "Footprint" "Package_SO:SOP-8_3.9x4.9mm_P1.27mm" (id 2) (at 5.08 -1.905 0)
      (effects (font (size 1.27 1.27) italic) (justify left) hide)
    )
    (property "Datasheet" "" (id 3) (at 0 0 0)
      (effects (font (size 1.27 1.27)) (justify left) hide)
    )
    (property "ki_fp_filters" "SOT?23*" (id 4) (at 0 0 0)
      (effects (font (size 1.27 1.27)) hide)
    )
  )
  (symbol "BSS83P" (extends "G16P03S")
    (property "Reference" "Q" (id 0) (at 5.08 1.905 0)
      (effects (font (size 1.27 1.27)) (justify left))
    )
    (property "Value" "BSS83P" (id 1) (at 5.08 0 0)
      (effects (font (size 1.27 1.27)) (justify left))
    )
    (property "Footprint" "Package_SO:SOP-8_3.9x4.9mm_P1.27mm" (id 2) (at 5.08 -1.905 0)
      (effects (font (size 1.27 1.27) italic) (justify left) hide)
    )
    (property "Datasheet" "" (id 3) (at 0 0 0)
      (effects (font (size 1.27 1.27)) (justify left) hide)
    )
    (property "ki_fp_filters" "SOT?23*" (id 4) (at 0 0 0)
      (effects (font (size 1.27 1.27)) hide)
    )
  )
  (symbol "BSS84" (extends "G16P03S")
    (property "Reference" "Q" (id 0) (at 5.08 1.905 0)
      (effects (font (size 1.27 1.27)) (justify left))
    )
    (property "Value" "BSS84" (id 1) (at 5.08 0 0)
      (effects (font (size 1.27 1.27)) (justify left))
    )
    (property "Footprint" "Package_SO:SOP-8_3.9x4.9mm_P1.27mm" (id 2) (at 5.08 -1.905 0)
      (effects (font (size 1.27 1.27) italic) (justify left) hide)
    )
    (property "Datasheet" "" (id 3) (at 0 0 0)
      (effects (font (size 1.27 1.27)) (justify left) hide)
    )
    (property "ki_fp_filters" "SOT?23*" (id 4) (at 0 0 0)
      (effects (font (size 1.27 1.27)) hide)
    )
  )
  (symbol "DMG2301L" (extends "G16P03S")
    (property "Reference" "Q" (id 0) (at 5.08 1.905 0)
      (effects (font (size 1.27 1.27)) (justify left))
    )
    (property "Value" "DMG2301L" (id 1) (at 5.08 0 0)
      (effects (font (size 1.27 1.27)) (justify left))
    )
    (property "Footprint" "Package_SO:SOP-8_3.9x4.9mm_P1.27mm" (id 2) (at 5.08 -1.905 0)
      (effects (font (size 1.27 1.27) italic) (justify left) hide)
    )
    (property "Datasheet" "" (id 3) (at 0 0 0)
      (effects (font (size 1.27 1.27)) (justify left) hide)
    )
    (property "ki_fp_filters" "SOT?23*" (id 4) (at 0 0 0)
      (effects (font (size 1.27 1.27)) hide)
    )
  )
  (symbol "FDN340P" (extends "G16P03S")
    (property "Reference" "Q" (id 0) (at 5.08 1.905 0)
      (effects (font (size 1.27 1.27)) (justify left))
    )
    (property "Value" "FDN340P" (id 1) (at 5.08 0 0)
      (effects (font (size 1.27 1.27)) (justify left))
    )
    (property "Footprint" "Package_SO:SOP-8_3.9x4.9mm_P1.27mm" (id 2) (at 5.08 -1.905 0)
      (effects (font (size 1.27 1.27) italic) (justify left) hide)
    )
    (property "Datasheet" "" (id 3) (at 0 0 0)
      (effects (font (size 1.27 1.27)) (justify left) hide)
    )
    (property "ki_fp_filters" "SOT?23*" (id 4) (at 0 0 0)
      (effects (font (size 1.27 1.27)) hide)
    )
  )
  (symbol "IRLML5203" (extends "G16P03S")
    (property "Reference" "Q" (id 0) (at 5.08 1.905 0)
      (effects (font (size 1.27 1.27)) (justify left))
    )
    (property "Value" "IRLML5203" (id 1) (at 5.08 0 0)
      (effects (font (size 1.27 1.27)) (justify left))
    )
    (property "Footprint" "Package_SO:SOP-8_3.9x4.9mm_P1.27mm" (id 2) (at 5.08 -1.905 0)
      (effects (font (size 1.27 1.27) italic) (justify left) hide)
    )
    (property "Datasheet" "" (id 3) (at 0 0 0)
      (effects (font (size 1.27 1.27)) (justify left) hide)
    )
    (property "ki_fp_filters" "SOT?23*" (id 4) (at 0 0 0)
      (effects (font (size 1.27 1.27)) hide)
    )
  )
  (symbol "IRLML6401" (extends "G16P03S")
    (property "Reference" "Q" (id 0) (at 5.08 1.905 0)
      (effects (font (size 1.27 1.27)) (justify left))
    )
    (property "Value" "IRLML6401" (id 1) (at 5.08 0 0)
      (effects (font (size 1.27 1.27)) (justify left))
    )
    (property "Footprint" "Package_SO:SOP-8_3.9x4.9mm_P1.27mm" (id 2) (at 5.08 -1.905 0)
      (effects (font (size 1.27 1.27) italic) (justify left) hide)
    )
    (property "Datasheet" "" (id 3) (at 0 0 0)
      (effects (font (size 1.27 1.27)) (justify left) hide)
    )
    (property "ki_fp_filters" "SOT?23*" (id 4) (at 0 0 0)
      (effects (font (size 1.27 1.27)) hide)
    )
  )
  (symbol "IRLML6402" (extends "G16P03S")
    (property "Reference" "Q" (id 0) (at 5.08 1.905 0)
      (effects (font (size 1.27 1.27)) (justify left))
    )
    (property "Value" "IRLML6402" (id 1) (at 5.08 0 0)
      (effects (font (size 1.27 1.27)) (justify left))
    )
    (property "Footprint" "Package_SO:SOP-8_3.9x4.9mm_P1.27mm" (id 2) (at 5.08 -1.905 0)
      (effects (font (size 1.27 1.27) italic) (justify left) hide)
    )
    (property "Datasheet" "" (id 3) (at 0 0 0)
      (effects (font (size 1.27 1.27)) (justify left) hide)
    )
    (property "ki_fp_filters" "SOT?23*" (id 4) (at 0 0 0)
      (effects (font (size 1.27 1.27)) hide)
    )
  )
  (symbol "IRLML9301" (extends "G16P03S")
    (property "Reference" "Q" (id 0) (at 5.08 1.905 0)
      (effects (font (size 1.27 1.27)) (justify left))
    )
    (property "Value" "IRLML9301" (id 1) (at 5.08 0 0)
      (effects (font (size 1.27 1.27)) (justify left))
    )
    (property "Footprint" "Package_SO:SOP-8_3.9x4.9mm_P1.27mm" (id 2) (at 5.08 -1.905 0)
      (effects (font (size 1.27 1.27) italic) (justify left) hide)
    )
    (property "Datasheet" "" (id 3) (at 0 0 0)
      (effects (font (size 1.27 1.27)) (justify left) hide)
    )
    (property "ki_fp_filters" "SOT?23*" (id 4) (at 0 0 0)
      (effects (font (size 1.27 1.27)) hide)
    )
  )
  (symbol "NTR2101P" (extends "G16P03S")
    (property "Reference" "Q" (id 0) (at 5.08 1.905 0)
      (effects (font (size 1.27 1.27)) (justify left))
    )
    (property "Value" "NTR2101P" (id 1) (at 5.08 0 0)
      (effects (font (size 1.27 1.27)) (justify left))
    )
    (property "Footprint" "Package_SO:SOP-8_3.9x4.9mm_P1.27mm" (id 2) (at 5.08 -1.905 0)
      (effects (font (size 1.27 1.27) italic) (justify left) hide)
    )
    (property "Datasheet" "" (id 3) (at 0 0 0)
      (effects (font (size 1.27 1.27)) (justify left) hide)
    )
    (property "ki_fp_filters" "SOT?23*" (id 4) (at 0 0 0)
      (effects (font (size 1.27 1.27)) hide)
    )
  )
  (symbol "Si2319CDS" (extends "G16P03S")
    (property "Reference" "Q" (id 0) (at 5.08 1.905 0)
      (effects (font (size 1.27 1.27)) (justify left))
    )
    (property "Value" "Si2319CDS" (id 1) (at 5.08 0 0)
      (effects (font (size 1.27 1.27)) (justify left))
    )
    (property "Footprint" "Package_SO:SOP-8_3.9x4.9mm_P1.27mm" (id 2) (at 5.08 -1.905 0)
      (effects (font (size 1.27 1.27) italic) (justify left) hide)
    )
    (property "Datasheet" "" (id 3) (at 0 0 0)
      (effects (font (size 1.27 1.27)) (justify left) hide)
    )
    (property "ki_fp_filters" "SOT?23*" (id 4) (at 0 0 0)
      (effects (font (size 1.27 1.27)) hide)
    )
  )
  (symbol "Si2371EDS" (extends "G16P03S")
    (property "Reference" "Q" (id 0) (at 5.08 1.905 0)
      (effects (font (size 1.27 1.27)) (justify left))
    )
    (property "Value" "Si2371EDS" (id 1) (at 5.08 0 0)
      (effects (font (size 1.27 1.27)) (justify left))
    )
    (property "Footprint" "Package_SO:SOP-8_3.9x4.9mm_P1.27mm" (id 2) (at 5.08 -1.905 0)
      (effects (font (size 1.27 1.27) italic) (justify left) hide)
    )
    (property "Datasheet" "" (id 3) (at 0 0 0)
      (effects (font (size 1.27 1.27)) (justify left) hide)
    )
    (property "ki_fp_filters" "SOT?23*" (id 4) (at 0 0 0)
      (effects (font (size 1.27 1.27)) hide)
    )
  )
  (symbol "TSM2301ACX" (extends "G16P03S")
    (property "Reference" "Q" (id 0) (at 5.08 1.905 0)
      (effects (font (size 1.27 1.27)) (justify left))
    )
    (property "Value" "TSM2301ACX" (id 1) (at 5.08 0 0)
      (effects (font (size 1.27 1.27)) (justify left))
    )
    (property "Footprint" "Package_SO:SOP-8_3.9x4.9mm_P1.27mm" (id 2) (at 5.08 -1.905 0)
      (effects (font (size 1.27 1.27) italic) (justify left) hide)
    )
    (property "Datasheet" "" (id 3) (at 0 0 0)
      (effects (font (size 1.27 1.27)) (justify left) hide)
    )
    (property "ki_fp_filters" "SOT?23*" (id 4) (at 0 0 0)
      (effects (font (size 1.27 1.27)) hide)
    )
  )
  (symbol "VP0610T" (extends "G16P03S")
    (property "Reference" "Q" (id 0) (at 5.08 1.905 0)
      (effects (font (size 1.27 1.27)) (justify left))
    )
    (property "Value" "VP0610T" (id 1) (at 5.08 0 0)
      (effects (font (size 1.27 1.27)) (justify left))
    )
    (property "Footprint" "Package_SO:SOP-8_3.9x4.9mm_P1.27mm" (id 2) (at 5.08 -1.905 0)
      (effects (font (size 1.27 1.27) italic) (justify left) hide)
    )
    (property "Datasheet" "" (id 3) (at 0 0 0)
      (effects (font (size 1.27 1.27)) (justify left) hide)
    )
    (property "ki_fp_filters" "SOT?23*" (id 4) (at 0 0 0)
      (effects (font (size 1.27 1.27)) hide)
    )
  )
  (symbol "ST7735S" (pin_names (offset 1.016)) (in_bom yes) (on_board yes)
    (property "Reference" "LCD" (id 0) (at 0 21.59 0)
      (effects (font (size 1.27 1.27)))
    )
    (property "Value" "ST7735S" (id 1) (at 0 19.05 0)
      (effects (font (size 1.27 1.27)))
    )
    (property "Footprint" "Footprints:ST7735S-1.8-Inch-128x160px-tft" (id 2) (at 0 0 0)
      (effects (font (size 1.27 1.27)) hide)
    )
    (property "Datasheet" "" (id 3) (at 0 0 0)
      (effects (font (size 1.27 1.27)) hide)
    )
    (symbol "ST7735S_0_1"
      (rectangle (start -5.08 17.78) (end 5.08 -17.78)
        (stroke (width 0) (type default) (color 0 0 0 0))
        (fill (type none))
      )
    )
    (symbol "ST7735S_1_1"
      (pin no_connect line (at -7.62 16.51 0) (length 2.54)
        (name "NC" (effects (font (size 1.27 1.27))))
        (number "1" (effects (font (size 1.27 1.27))))
      )
      (pin power_in line (at -7.62 -6.35 0) (length 2.54)
        (name "VCC" (effects (font (size 1.27 1.27))))
        (number "10" (effects (font (size 1.27 1.27))))
      )
      (pin power_in line (at -7.62 -8.89 0) (length 2.54)
        (name "IOVCC" (effects (font (size 1.27 1.27))))
        (number "11" (effects (font (size 1.27 1.27))))
      )
      (pin input line (at -7.62 -11.43 0) (length 2.54)
        (name "CS" (effects (font (size 1.27 1.27))))
        (number "12" (effects (font (size 1.27 1.27))))
      )
      (pin power_in line (at -7.62 -13.97 0) (length 2.54)
        (name "GND" (effects (font (size 1.27 1.27))))
        (number "13" (effects (font (size 1.27 1.27))))
      )
      (pin no_connect line (at -7.62 -16.51 0) (length 2.54)
        (name "NC" (effects (font (size 1.27 1.27))))
        (number "14" (effects (font (size 1.27 1.27))))
      )
      (pin power_in line (at -7.62 13.97 0) (length 2.54)
        (name "GND" (effects (font (size 1.27 1.27))))
        (number "2" (effects (font (size 1.27 1.27))))
      )
      (pin power_in line (at -7.62 11.43 0) (length 2.54)
        (name "LED-" (effects (font (size 1.27 1.27))))
        (number "3" (effects (font (size 1.27 1.27))))
      )
      (pin power_in line (at -7.62 8.89 0) (length 2.54)
        (name "LED+" (effects (font (size 1.27 1.27))))
        (number "4" (effects (font (size 1.27 1.27))))
      )
      (pin power_in line (at -7.62 6.35 0) (length 2.54)
        (name "GND" (effects (font (size 1.27 1.27))))
        (number "5" (effects (font (size 1.27 1.27))))
      )
      (pin power_in line (at -7.62 3.81 0) (length 2.54)
        (name "~{RST}" (effects (font (size 1.27 1.27))))
        (number "6" (effects (font (size 1.27 1.27))))
      )
      (pin input line (at -7.62 1.27 0) (length 2.54)
        (name "A0" (effects (font (size 1.27 1.27))))
        (number "7" (effects (font (size 1.27 1.27))))
      )
      (pin input line (at -7.62 -1.27 0) (length 2.54)
        (name "SDA" (effects (font (size 1.27 1.27))))
        (number "8" (effects (font (size 1.27 1.27))))
      )
      (pin input line (at -7.62 -3.81 0) (length 2.54)
        (name "SCK" (effects (font (size 1.27 1.27))))
        (number "9" (effects (font (size 1.27 1.27))))
      )
    )
  )
  (symbol "TPS61032PWPR" (pin_names (offset 1.016)) (in_bom yes) (on_board yes)
    (property "Reference" "U" (id 0) (at 0 13.97 0)
      (effects (font (size 1.27 1.27)))
    )
    (property "Value" "TPS61032PWPR" (id 1) (at 0 16.51 0)
      (effects (font (size 1.27 1.27)))
    )
    (property "Footprint" "Package_SO:HTSSOP-16-1EP_4.4x5mm_P0.65mm_EP3.4x5mm_Mask2.46x2.31mm" (id 2) (at 0 -24.13 0)
      (effects (font (size 1.27 1.27)) hide)
    )
    (property "Datasheet" "" (id 3) (at 3.81 -3.81 0)
      (effects (font (size 1.27 1.27)) hide)
    )
    (property "#LCSC" "C88716" (id 4) (at 0 0 0)
      (effects (font (size 1.27 1.27)))
    )
    (symbol "TPS61032PWPR_0_1"
      (rectangle (start -7.62 12.7) (end 7.62 -11.43)
        (stroke (width 0) (type default) (color 0 0 0 0))
        (fill (type background))
      )
    )
    (symbol "TPS61032PWPR_1_1"
      (pin input line (at -10.16 10.16 0) (length 2.54)
        (name "SW" (effects (font (size 1.27 1.27))))
        (number "1" (effects (font (size 1.27 1.27))))
      )
      (pin output line (at 10.16 -5.08 180) (length 2.54)
        (name "LBO" (effects (font (size 1.27 1.27))))
        (number "10" (effects (font (size 1.27 1.27))))
      )
      (pin power_in line (at -10.16 -8.89 0) (length 2.54)
        (name "GND" (effects (font (size 1.27 1.27))))
        (number "11" (effects (font (size 1.27 1.27))))
      )
      (pin input line (at 10.16 2.54 180) (length 2.54)
        (name "FB" (effects (font (size 1.27 1.27))))
        (number "12" (effects (font (size 1.27 1.27))))
      )
      (pin power_out line (at 10.16 10.16 180) (length 2.54)
        (name "VOUT" (effects (font (size 1.27 1.27))))
        (number "13" (effects (font (size 1.27 1.27))))
      )
      (pin passive line (at 10.16 10.16 180) (length 2.54) hide
        (name "VOUT" (effects (font (size 1.27 1.27))))
        (number "14" (effects (font (size 1.27 1.27))))
      )
      (pin passive line (at 10.16 10.16 180) (length 2.54) hide
        (name "VOUT" (effects (font (size 1.27 1.27))))
        (number "15" (effects (font (size 1.27 1.27))))
      )
      (pin power_in line (at 0 -13.97 90) (length 2.54)
        (name "PowerPAD" (effects (font (size 1.27 1.27))))
        (number "17" (effects (font (size 1.27 1.27))))
      )
      (pin input line (at -10.16 10.16 0) (length 2.54) hide
        (name "SW" (effects (font (size 1.27 1.27))))
        (number "2" (effects (font (size 1.27 1.27))))
      )
      (pin power_in line (at 10.16 -8.89 180) (length 2.54)
        (name "PGND" (effects (font (size 1.27 1.27))))
        (number "3" (effects (font (size 1.27 1.27))))
      )
      (pin passive line (at 10.16 -8.89 180) (length 2.54) hide
        (name "PGND" (effects (font (size 1.27 1.27))))
        (number "4" (effects (font (size 1.27 1.27))))
      )
      (pin passive line (at 10.16 -8.89 180) (length 2.54) hide
        (name "PGND" (effects (font (size 1.27 1.27))))
        (number "5" (effects (font (size 1.27 1.27))))
      )
      (pin power_in line (at -10.16 5.08 0) (length 2.54)
        (name "VBAT" (effects (font (size 1.27 1.27))))
        (number "6" (effects (font (size 1.27 1.27))))
      )
      (pin input line (at -10.16 0 0) (length 2.54)
        (name "LBI" (effects (font (size 1.27 1.27))))
        (number "7" (effects (font (size 1.27 1.27))))
      )
      (pin input line (at -10.16 -5.08 0) (length 2.54)
        (name "SYNC" (effects (font (size 1.27 1.27))))
        (number "8" (effects (font (size 1.27 1.27))))
      )
      (pin input line (at -10.16 2.54 0) (length 2.54)
        (name "EN" (effects (font (size 1.27 1.27))))
        (number "9" (effects (font (size 1.27 1.27))))
      )
    )
  )
)
